CNN1/hardware/system_integration_test.vcd
$date
	Tue Feb 10 05:30:00 2026
$end
$version
	Icarus Verilog
$end
$timescale
	1ps
$end
$scope module tb_system_simple $end
$var wire 1 ! window_valid $end
$var wire 20 " relu_out [19:0] $end
$var wire 1 # conv_valid $end
$var wire 20 $ conv_out [19:0] $end
$var parameter 32 % CLK_PERIOD $end
$var parameter 32 & IMG_SIZE $end
$var parameter 32 ' PIXEL_WIDTH $end
$var reg 1 ( clk $end
$var reg 1 ) enable $end
$var reg 8 * filter0_bias [7:0] $end
$var reg 8 + pixel_in [7:0] $end
$var reg 1 , pixel_valid $end
$var reg 1 - rst_n $end
$var integer 32 . conv_output_count [31:0] $end
$var integer 32 / i [31:0] $end
$var integer 32 0 pixel_count [31:0] $end
$scope begin window_convert[0] $end
$var parameter 2 1 gi $end
$upscope $end
$scope begin window_convert[1] $end
$var parameter 2 2 gi $end
$upscope $end
$scope begin window_convert[2] $end
$var parameter 3 3 gi $end
$upscope $end
$scope begin window_convert[3] $end
$var parameter 3 4 gi $end
$upscope $end
$scope begin window_convert[4] $end
$var parameter 4 5 gi $end
$upscope $end
$scope begin window_convert[5] $end
$var parameter 4 6 gi $end
$upscope $end
$scope begin window_convert[6] $end
$var parameter 4 7 gi $end
$upscope $end
$scope begin window_convert[7] $end
$var parameter 4 8 gi $end
$upscope $end
$scope begin window_convert[8] $end
$var parameter 5 9 gi $end
$upscope $end
$scope module conv $end
$var wire 8 : bias [7:0] $end
$var wire 1 ( clk $end
$var wire 1 ) enable $end
$var wire 1 - rst_n $end
$var wire 1 ! valid_in $end
$var wire 20 ; sum_products [19:0] $end
$var wire 20 < result [19:0] $end
$var wire 20 = bias_scaled [19:0] $end
$var parameter 32 > ACC_WIDTH $end
$var parameter 32 ? DATA_WIDTH $end
$var parameter 32 @ WEIGHT_WIDTH $end
$var reg 20 A conv_out [19:0] $end
$var reg 1 # valid_out $end
$scope begin mult_gen[0] $end
$var parameter 2 B i $end
$upscope $end
$scope begin mult_gen[1] $end
$var parameter 2 C i $end
$upscope $end
$scope begin mult_gen[2] $end
$var parameter 3 D i $end
$upscope $end
$scope begin mult_gen[3] $end
$var parameter 3 E i $end
$upscope $end
$scope begin mult_gen[4] $end
$var parameter 4 F i $end
$upscope $end
$scope begin mult_gen[5] $end
$var parameter 4 G i $end
$upscope $end
$scope begin mult_gen[6] $end
$var parameter 4 H i $end
$upscope $end
$scope begin mult_gen[7] $end
$var parameter 4 I i $end
$upscope $end
$scope begin mult_gen[8] $end
$var parameter 5 J i $end
$upscope $end
$upscope $end
$scope module line_buf $end
$var wire 1 ( clk $end
$var wire 1 ) enable $end
$var wire 8 K pixel_in [7:0] $end
$var wire 1 , pixel_valid $end
$var wire 1 - rst_n $end
$var parameter 32 L DATA_WIDTH $end
$var parameter 32 M IMG_WIDTH $end
$var reg 1 ! window_valid $end
$var reg 5 N x [4:0] $end
$var reg 5 O y [4:0] $end
$var integer 32 P i [31:0] $end
$var integer 32 Q j [31:0] $end
$upscope $end
$scope module relu_inst $end
$var wire 20 R data_in [19:0] $end
$var wire 20 S data_out [19:0] $end
$var parameter 32 T WIDTH $end
$upscope $end
$upscope $end
$enddefinitions $end
$comment Show the parameter values. $end
$dumpall
b10100 T
b11100 M
b1000 L
b1000 J
b111 I
b110 H
b101 G
b100 F
b11 E
b10 D
b1 C
b0 B
b1000 @
b1000 ?
b10100 >
b1000 9
b111 8
b110 7
b101 6
b100 5
b11 4
b10 3
b1 2
b0 1
b1000 '
b11100 &
b1010 %
$end
#0
$dumpvars
b0 S
b0 R
bx Q
b1001 P
b0 O
b0 N
b0 K
b0 A
b11111111111111110110 =
b11111111111111110110 <
b0 ;
b11110110 :
b0 0
bx /
b0 .
0-
0,
b0 +
b11110110 *
0)
0(
b0 $
0#
b0 "
0!
$end
#5000
b1001 P
1(
#10000
0(
#15000
b1001 P
1(
#20000
0(
#25000
b1001 P
1(
#30000
0(
#35000
b1001 P
1(
#40000
0(
#45000
b1001 P
1(
#50000
0(
1)
1-
#55000
b0 "
b0 S
b11111111111111110110 $
b11111111111111110110 A
b11111111111111110110 R
1(
#60000
0(
#65000
1(
#70000
0(
b0 /
#75000
b1 N
b1 /
b1 0
1,
1(
#80000
0(
#85000
b10 N
b10 /
b10 0
1(
#90000
0(
#95000
b11 N
b11 /
b11 0
1(
#100000
0(
#105000
b100 N
b100 /
b100 0
1(
#110000
0(
#115000
b101 N
b101 /
b101 0
1(
#120000
0(
#125000
b110 N
b110 /
b110 0
1(
#130000
0(
#135000
b111 N
b111 /
b111 0
1(
#140000
0(
#145000
b1000 N
b1000 /
b1000 0
1(
#150000
0(
#155000
b1001 N
b1001 /
b1001 0
1(
#160000
0(
#165000
b1010 N
b1010 /
b1010 0
1(
#170000
0(
#175000
b1011 N
b1011 /
b1011 0
1(
#180000
0(
#185000
b1100 N
b1100 /
b1100 0
1(
#190000
0(
#195000
b1101 N
b1101 /
b1101 0
1(
#200000
0(
#205000
b1110 N
b1110 /
b1110 0
1(
#210000
0(
#215000
b1111 N
b1111 /
b1111 0
1(
#220000
0(
#225000
b10000 N
b10000 /
b10000 0
1(
#230000
0(
#235000
b10001 N
b10001 /
b10001 0
1(
#240000
0(
#245000
b10010 N
b10010 /
b10010 0
1(
#250000
0(
#255000
b10011 N
b10011 /
b10011 0
1(
#260000
0(
#265000
b10100 N
b10100 /
b10100 0
1(
#270000
0(
#275000
b10101 N
b10101 /
b10101 0
1(
#280000
0(
#285000
b10110 N
b10110 /
b10110 0
1(
#290000
0(
#295000
b10111 N
b10111 /
b10111 0
1(
#300000
0(
#305000
b11000 N
b11000 /
b11000 0
1(
#310000
0(
#315000
b11001 N
b11001 /
b11001 0
1(
#320000
0(
#325000
b11010 N
b11010 /
b11010 0
1(
#330000
0(
#335000
b11011 N
b11011 /
b11011 0
1(
#340000
0(
#345000
b1 O
b0 N
b11100 Q
b11100 /
b11100 0
1(
#350000
0(
#355000
b1 N
b11101 /
b11101 0
1(
#360000
0(
#365000
b10 N
b11110 /
b11110 0
1(
#370000
0(
#375000
b11 N
b11111 /
b11111 0
1(
#380000
0(
#385000
b100 N
b100000 /
b100000 0
1(
#390000
0(
#395000
b101 N
b100001 /
b100001 0
1(
#400000
0(
#405000
b110 N
b100010 /
b100010 0
1(
#410000
0(
#415000
b111 N
b100011 /
b100011 0
1(
#420000
0(
#425000
b1000 N
b100100 /
b100100 0
1(
#430000
0(
#435000
b1001 N
b100101 /
b100101 0
1(
#440000
0(
#445000
b1010 N
b100110 /
b100110 0
1(
#450000
0(
#455000
b1011 N
b100111 /
b100111 0
1(
#460000
0(
#465000
b1100 N
b101000 /
b101000 0
1(
#470000
0(
#475000
b1101 N
b101001 /
b101001 0
1(
#480000
0(
#485000
b1110 N
b101010 /
b101010 0
1(
#490000
0(
#495000
b1111 N
b101011 /
b101011 0
1(
#500000
0(
#505000
b10000 N
b101100 /
b101100 0
1(
#510000
0(
#515000
b10001 N
b101101 /
b101101 0
1(
#520000
0(
#525000
b10010 N
b101110 /
b101110 0
1(
#530000
0(
#535000
b10011 N
b101111 /
b101111 0
1(
#540000
0(
#545000
b10100 N
b110000 /
b110000 0
1(
#550000
0(
#555000
b10101 N
b110001 /
b110001 0
1(
#560000
0(
#565000
b10110 N
b110010 /
b110010 0
1(
#570000
0(
#575000
b10111 N
b110011 /
b110011 0
1(
#580000
0(
#585000
b11000 N
b110100 /
b110100 0
1(
#590000
0(
#595000
b11001 N
b110101 /
b110101 0
1(
#600000
0(
#605000
b11010 N
b110110 /
b110110 0
1(
#610000
0(
#615000
b11011 N
b110111 /
b110111 0
1(
#620000
0(
#625000
b10 O
b0 N
b11100 Q
b111000 /
b111000 0
1(
#630000
0(
#635000
b1 N
b111001 /
b111001 0
1(
#640000
0(
#645000
b10 N
b111010 /
b111010 0
1(
#650000
0(
#655000
b11 N
1!
b111011 /
b111011 0
1(
#660000
0(
#665000
1#
b100 N
b111100 /
b111100 0
1(
#670000
0(
#675000
b101 N
b1 .
b111101 /
b111101 0
1(
#680000
0(
#685000
b110 N
b111110 /
b111110 0
b10 .
1(
#690000
0(
#695000
b111 N
b11 .
b111111 /
b111111 0
1(
#700000
0(
#705000
b1000 N
b1000000 /
b1000000 0
b100 .
1(
#710000
0(
#715000
b1001 N
b101 .
b1000001 /
b1000001 0
1(
#720000
0(
#725000
b1010 N
b1000010 /
b1000010 0
b110 .
1(
#730000
0(
#735000
b1011 N
b111 .
b1000011 /
b1000011 0
1(
#740000
0(
#745000
b1100 N
b1000100 /
b1000100 0
b1000 .
1(
#750000
0(
#755000
b1101 N
b1001 .
b1000101 /
b1000101 0
1(
#760000
0(
#765000
b1110 N
b1000110 /
b1000110 0
b1010 .
1(
#770000
0(
#775000
b1111 N
b1011 .
b1000111 /
b1000111 0
1(
#780000
0(
#785000
b10000 N
b1001000 /
b1001000 0
b1100 .
1(
#790000
0(
#795000
b10001 N
b1101 .
b1001001 /
b1001001 0
1(
#800000
0(
#805000
b10010 N
b1001010 /
b1001010 0
b1110 .
1(
#810000
0(
#815000
b10011 N
b1111 .
b1001011 /
b1001011 0
1(
#820000
0(
#825000
b10100 N
b1001100 /
b1001100 0
b10000 .
1(
#830000
0(
#835000
b10101 N
b10001 .
b1001101 /
b1001101 0
1(
#840000
0(
#845000
b10110 N
b1001110 /
b1001110 0
b10010 .
1(
#850000
0(
#855000
b10111 N
b10011 .
b1001111 /
b1001111 0
1(
#860000
0(
#865000
b11000 N
b1010000 /
b1010000 0
b10100 .
1(
#870000
0(
#875000
b11001 N
b10101 .
b1010001 /
b1010001 0
1(
#880000
0(
#885000
b11010 N
b1010010 /
b1010010 0
b10110 .
1(
#890000
0(
#895000
b11011 N
b10111 .
b1010011 /
b1010011 0
1(
#900000
0(
#905000
b11 O
b0 N
b11100 Q
b1010100 /
b1010100 0
b11000 .
1(
#910000
0(
#915000
b1 N
0!
b11001 .
b1010101 /
b1010101 0
1(
#920000
0(
#925000
0#
b10 N
b1010110 /
b1010110 0
b11010 .
1(
#930000
0(
#935000
b11 N
1!
b1010111 /
b1010111 0
1(
#940000
0(
#945000
1#
b100 N
b1011000 /
b1011000 0
1(
#950000
0(
#955000
b101 N
b11011 .
b1011001 /
b1011001 0
1(
#960000
0(
#965000
b110 N
b1011010 /
b1011010 0
b11100 .
1(
#970000
0(
#975000
b111 N
b11101 .
b1011011 /
b1011011 0
1(
#980000
0(
#985000
b1000 N
b1011100 /
b1011100 0
b11110 .
1(
#990000
0(
#995000
b1001 N
b11111 .
b1011101 /
b1011101 0
1(
#1000000
0(
#1005000
b1010 N
b1011110 /
b1011110 0
b100000 .
1(
#1010000
0(
#1015000
b1011 N
b100001 .
b1011111 /
b1011111 0
1(
#1020000
0(
#1025000
b1100 N
b1100000 /
b1100000 0
b100010 .
1(
#1030000
0(
#1035000
b1101 N
b100011 .
b1100001 /
b1100001 0
1(
#1040000
0(
#1045000
b1110 N
b1100010 /
b1100010 0
b100100 .
1(
#1050000
0(
#1055000
b1111 N
b100101 .
b1100011 /
b1100011 0
1(
#1060000
0(
#1065000
b10000 N
b1100100 /
b1100100 0
b100110 .
1(
#1070000
0(
#1075000
b10001 N
b100111 .
b1100101 /
b1100101 0
1(
#1080000
0(
#1085000
b10010 N
b1100110 /
b1100110 0
b101000 .
1(
#1090000
0(
#1095000
b10011 N
b101001 .
b1100111 /
b1100111 0
1(
#1100000
0(
#1105000
b10100 N
b1101000 /
b1101000 0
b101010 .
1(
#1110000
0(
#1115000
b10101 N
b101011 .
b1101001 /
b1101001 0
1(
#1120000
0(
#1125000
b10110 N
b1101010 /
b1101010 0
b101100 .
1(
#1130000
0(
#1135000
b10111 N
b101101 .
b1101011 /
b1101011 0
1(
#1140000
0(
#1145000
b11000 N
b1101100 /
b1101100 0
b101110 .
1(
#1150000
0(
#1155000
b11001 N
b101111 .
b1101101 /
b1101101 0
1(
#1160000
0(
#1165000
b11010 N
b1101110 /
b1101110 0
b110000 .
1(
#1170000
0(
#1175000
b11011 N
b110001 .
b1101111 /
b1101111 0
1(
#1180000
0(
#1185000
b100 O
b0 N
b11100 Q
b1110000 /
b1110000 0
b110010 .
1(
#1190000
0(
#1195000
b1 N
0!
b110011 .
b1110001 /
b1110001 0
1(
#1200000
0(
#1205000
0#
b10 N
b1110010 /
b1110010 0
b110100 .
1(
#1210000
0(
#1215000
b11 N
1!
b1110011 /
b1110011 0
1(
#1220000
0(
#1225000
1#
b100 N
b1110100 /
b1110100 0
1(
#1230000
0(
#1235000
b101 N
b110101 .
b1110101 /
b1110101 0
1(
#1240000
0(
#1245000
b110 N
b1110110 /
b1110110 0
b110110 .
1(
#1250000
0(
#1255000
b111 N
b110111 .
b1110111 /
b1110111 0
1(
#1260000
0(
#1265000
b1000 N
b1111000 /
b1111000 0
b111000 .
1(
#1270000
0(
#1275000
b1001 N
b111001 .
b1111001 /
b1111001 0
1(
#1280000
0(
#1285000
b1010 N
b1111010 /
b1111010 0
b111010 .
1(
#1290000
0(
#1295000
b1011 N
b111011 .
b1111011 /
b1111011 0
1(
#1300000
0(
#1305000
b1100 N
b1111100 /
b1111100 0
b111100 .
1(
#1310000
0(
#1315000
b1101 N
b111101 .
b1111101 /
b1111101 0
1(
#1320000
0(
#1325000
b1110 N
b1111110 /
b1111110 0
b111110 .
1(
#1330000
0(
#1335000
b1111 N
b111111 .
b1111111 /
b1111111 0
1(
#1340000
0(
#1345000
b10000 N
b10000000 /
b10000000 0
b1000000 .
1(
#1350000
0(
#1355000
b10001 N
b1000001 .
b10000001 /
b10000001 0
1(
#1360000
0(
#1365000
b10010 N
b10000010 /
b10000010 0
b1000010 .
1(
#1370000
0(
#1375000
b10011 N
b1000011 .
b10000011 /
b10000011 0
1(
#1380000
0(
#1385000
b10100 N
b10000100 /
b10000100 0
b1000100 .
1(
#1390000
0(
#1395000
b10101 N
b1000101 .
b10000101 /
b10000101 0
1(
#1400000
0(
#1405000
b10110 N
b10000110 /
b10000110 0
b1000110 .
1(
#1410000
0(
#1415000
b10111 N
b1000111 .
b10000111 /
b10000111 0
1(
#1420000
0(
#1425000
b11000 N
b10001000 /
b10001000 0
b1001000 .
1(
#1430000
0(
#1435000
b11001 N
b1001001 .
b10001001 /
b10001001 0
1(
#1440000
0(
#1445000
b11010 N
b10001010 /
b10001010 0
b1001010 .
1(
#1450000
0(
#1455000
b11011 N
b1001011 .
b10001011 /
b10001011 0
1(
#1460000
0(
#1465000
b101 O
b0 N
b11100 Q
b10001100 /
b10001100 0
b1001100 .
1(
#1470000
0(
#1475000
b1 N
0!
b1001101 .
b10001101 /
b10001101 0
1(
#1480000
0(
#1485000
0#
b10 N
b10001110 /
b10001110 0
b1001110 .
1(
#1490000
0(
#1495000
b11 N
1!
b10001111 /
b10001111 0
1(
#1500000
0(
#1505000
1#
b100 N
b10010000 /
b10010000 0
1(
#1510000
0(
#1515000
b101 N
b1001111 .
b10010001 /
b10010001 0
1(
#1520000
0(
#1525000
b110 N
b10010010 /
b10010010 0
b1010000 .
1(
#1530000
0(
#1535000
b111 N
b1010001 .
b10010011 /
b10010011 0
1(
#1540000
0(
#1545000
b1000 N
b10010100 /
b10010100 0
b1010010 .
1(
#1550000
0(
#1555000
b1001 N
b1010011 .
b10010101 /
b10010101 0
1(
#1560000
0(
#1565000
b1010 N
b10010110 /
b10010110 0
b1010100 .
1(
#1570000
0(
#1575000
b1011 N
b11111111111001100110 <
b11111111111001110000 ;
b1010101 .
b10010111 /
b10010111 0
b110010 +
b110010 K
1(
#1580000
0(
#1585000
b11111111111001100110 $
b11111111111001100110 A
b11111111111001100110 R
b1100 N
b11111111111100111100 <
b11111111111101000110 ;
b10011000 /
b10011000 0
b11011111 +
b11011111 K
b1010110 .
1(
#1590000
0(
#1595000
b1101 N
b11111111110111001101 <
b11111111110111010111 ;
b11111111111100111100 $
b11111111111100111100 A
b11111111111100111100 R
b1010111 .
b10011001 /
b10011001 0
b0 +
b0 K
1(
#1600000
0(
#1605000
b11111111110111001101 $
b11111111110111001101 A
b11111111110111001101 R
b1110 N
b1000100111 <
b1000110001 ;
b10011010 /
b10011010 0
b1011000 .
1(
#1610000
0(
#1615000
b1000100111 "
b1000100111 S
b1111 N
b11111111111111110110 <
b0 ;
b1000100111 $
b1000100111 A
b1000100111 R
b1011001 .
b10011011 /
b10011011 0
1(
#1620000
0(
#1625000
b0 "
b0 S
b11111111111111110110 $
b11111111111111110110 A
b11111111111111110110 R
b10000 N
b10011100 /
b10011100 0
b1011010 .
1(
#1630000
0(
#1635000
b10001 N
b1011011 .
b10011101 /
b10011101 0
1(
#1640000
0(
#1645000
b10010 N
b10011110 /
b10011110 0
b1011100 .
1(
#1650000
0(
#1655000
b10011 N
b1011101 .
b10011111 /
b10011111 0
1(
#1660000
0(
#1665000
b10100 N
b11111111110111000110 <
b11111111110111010000 ;
b10100000 /
b10100000 0
b1000110 +
b1000110 K
b1011110 .
1(
#1670000
0(
#1675000
b10101 N
b11111111110010011000 <
b11111111110010100010 ;
b11111111110111000110 $
b11111111110111000110 A
b11111111110111000110 R
b1011111 .
b10100001 /
b10100001 0
b11101 +
b11101 K
1(
#1680000
0(
#1685000
b11111111110010011000 $
b11111111110010011000 A
b11111111110010011000 R
b10110 N
b11111111101001001011 <
b11111111101001010101 ;
b10100010 /
b10100010 0
b0 +
b0 K
b1100000 .
1(
#1690000
0(
#1695000
b10111 N
b11111111111000001001 <
b11111111111000010011 ;
b11111111101001001011 $
b11111111101001001011 A
b11111111101001001011 R
b1100001 .
b10100011 /
b10100011 0
1(
#1700000
0(
#1705000
b11111111111000001001 $
b11111111111000001001 A
b11111111111000001001 R
b11000 N
b11111111111111110110 <
b0 ;
b10100100 /
b10100100 0
b1100010 .
1(
#1710000
0(
#1715000
b11001 N
b11111111111111110110 $
b11111111111111110110 A
b11111111111111110110 R
b1100011 .
b10100101 /
b10100101 0
1(
#1720000
0(
#1725000
b11010 N
b10100110 /
b10100110 0
b1100100 .
1(
#1730000
0(
#1735000
b11011 N
b1100101 .
b10100111 /
b10100111 0
1(
#1740000
0(
#1745000
b110 O
b0 N
b11100 Q
b10101000 /
b10101000 0
b1100110 .
1(
#1750000
0(
#1755000
b1 N
0!
b1100111 .
b10101001 /
b10101001 0
1(
#1760000
0(
#1765000
0#
b10 N
b10101010 /
b10101010 0
b1101000 .
1(
#1770000
0(
#1775000
b11 N
1!
b10101011 /
b10101011 0
1(
#1780000
0(
#1785000
1#
b100 N
b10101100 /
b10101100 0
1(
#1790000
0(
#1795000
b101 N
b1101001 .
b10101101 /
b10101101 0
1(
#1800000
0(
#1805000
b110 N
b10101110 /
b10101110 0
b1101010 .
1(
#1810000
0(
#1815000
b111 N
b1101011 .
b10101111 /
b10101111 0
1(
#1820000
0(
#1825000
b1000 N
b10110000 /
b10110000 0
b1101100 .
1(
#1830000
0(
#1835000
b1001 N
b1101101 .
b10110001 /
b10110001 0
1(
#1840000
0(
#1845000
b1010 N
b10110010 /
b10110010 0
b1101110 .
1(
#1850000
0(
#1855000
b1011 N
b11111111101000010000 <
b11111111101000011010 ;
b1101111 .
b10110011 /
b10110011 0
b1111000 +
b1111000 K
1(
#1860000
0(
#1865000
b11111111101000010000 $
b11111111101000010000 A
b11111111101000010000 R
b1100 N
b11111111110110001101 <
b11111111110110010111 ;
b10110100 /
b10110100 0
b11100111 +
b11100111 K
b1110000 .
1(
#1870000
0(
#1875000
b1101 N
b11111111100101010011 <
b11111111100101011101 ;
b11111111110110001101 $
b11111111110110001101 A
b11111111110110001101 R
b1110001 .
b10110101 /
b10110101 0
b0 +
b0 K
1(
#1880000
0(
#1885000
b11111111100101010011 $
b11111111100101010011 A
b11111111100101010011 R
b1110 N
b101111110 <
b110001000 ;
b10110110 /
b10110110 0
b1110010 .
1(
#1890000
0(
#1895000
b101111110 "
b101111110 S
b1111 N
b11111111111111110110 <
b0 ;
b101111110 $
b101111110 A
b101111110 R
b1110011 .
b10110111 /
b10110111 0
1(
#1900000
0(
#1905000
b0 "
b0 S
b11111111111111110110 $
b11111111111111110110 A
b11111111111111110110 R
b10000 N
b10111000 /
b10111000 0
b1110100 .
1(
#1910000
0(
#1915000
b10001 N
b1110101 .
b10111001 /
b10111001 0
1(
#1920000
0(
#1925000
b10010 N
b10111010 /
b10111010 0
b1110110 .
1(
#1930000
0(
#1935000
b10011 N
b1110111 .
b10111011 /
b10111011 0
1(
#1940000
0(
#1945000
b10100 N
b1010100 <
b1011110 ;
b10111100 /
b10111100 0
b10010100 +
b10010100 K
b1111000 .
1(
#1950000
0(
#1955000
b1010100 "
b1010100 S
b10101 N
b10010110111 <
b10011000001 ;
b1010100 $
b1010100 A
b1010100 R
b1111001 .
b10111101 /
b10111101 0
b10101000 +
b10101000 K
1(
#1960000
0(
#1965000
b10010110111 "
b10010110111 S
b10010110111 $
b10010110111 A
b10010110111 R
b10110 N
b101001000110 <
b101001010000 ;
b10111110 /
b10111110 0
b0 +
b0 K
b1111010 .
1(
#1970000
0(
#1975000
b101001000110 "
b101001000110 S
b10111 N
b10111101011 <
b10111110101 ;
b101001000110 $
b101001000110 A
b101001000110 R
b1111011 .
b10111111 /
b10111111 0
1(
#1980000
0(
#1985000
b10111101011 "
b10111101011 S
b10111101011 $
b10111101011 A
b10111101011 R
b11000 N
b11111111111111110110 <
b0 ;
b11000000 /
b11000000 0
b1111100 .
1(
#1990000
0(
#1995000
b0 "
b0 S
b11001 N
b11111111111111110110 $
b11111111111111110110 A
b11111111111111110110 R
b1111101 .
b11000001 /
b11000001 0
1(
#2000000
0(
#2005000
b11010 N
b11000010 /
b11000010 0
b1111110 .
1(
#2010000
0(
#2015000
b11011 N
b1111111 .
b11000011 /
b11000011 0
1(
#2020000
0(
#2025000
b111 O
b0 N
b11100 Q
b11000100 /
b11000100 0
b10000000 .
1(
#2030000
0(
#2035000
b1 N
0!
b10000001 .
b11000101 /
b11000101 0
1(
#2040000
0(
#2045000
0#
b10 N
b11000110 /
b11000110 0
b10000010 .
1(
#2050000
0(
#2055000
b11 N
1!
b11000111 /
b11000111 0
1(
#2060000
0(
#2065000
1#
b100 N
b11001000 /
b11001000 0
1(
#2070000
0(
#2075000
b101 N
b10000011 .
b11001001 /
b11001001 0
1(
#2080000
0(
#2085000
b110 N
b11001010 /
b11001010 0
b10000100 .
1(
#2090000
0(
#2095000
b111 N
b10000101 .
b11001011 /
b11001011 0
1(
#2100000
0(
#2105000
b1000 N
b11001100 /
b11001100 0
b10000110 .
1(
#2110000
0(
#2115000
b1001 N
b10000111 .
b11001101 /
b11001101 0
1(
#2120000
0(
#2125000
b1010 N
b11111111111111010110 <
b11111111111111100000 ;
b11001110 /
b11001110 0
b100 +
b100 K
b10001000 .
1(
#2130000
0(
#2135000
b1011 N
b11111111110000101110 <
b11111111110000111000 ;
b11111111111111010110 $
b11111111111111010110 A
b11111111111111010110 R
b10001001 .
b11001111 /
b11001111 0
b11000011 +
b11000011 K
1(
#2140000
0(
#2145000
b11111111110000101110 $
b11111111110000101110 A
b11111111110000101110 R
b1100 N
b10100101010 <
b10100110100 ;
b11010000 /
b11010000 0
b11100111 +
b11100111 K
b10001010 .
1(
#2150000
0(
#2155000
b10100101010 "
b10100101010 S
b1101 N
b10111100101 <
b10111101111 ;
b10100101010 $
b10100101010 A
b10100101010 R
b10001011 .
b11010001 /
b11010001 0
b0 +
b0 K
1(
#2160000
0(
#2165000
b10111100101 "
b10111100101 S
b10111100101 $
b10111100101 A
b10111100101 R
b1110 N
b1011101 <
b1100111 ;
b11010010 /
b11010010 0
b10001100 .
1(
#2170000
0(
#2175000
b1011101 "
b1011101 S
b1111 N
b11111111111111110110 <
b0 ;
b1011101 $
b1011101 A
b1011101 R
b10001101 .
b11010011 /
b11010011 0
1(
#2180000
0(
#2185000
b0 "
b0 S
b11111111111111110110 $
b11111111111111110110 A
b11111111111111110110 R
b10000 N
b11010100 /
b11010100 0
b10001110 .
1(
#2190000
0(
#2195000
b10001 N
b10001111 .
b11010101 /
b11010101 0
1(
#2200000
0(
#2205000
b10010 N
b11010110 /
b11010110 0
b10010000 .
1(
#2210000
0(
#2215000
b10011 N
b10010001 .
b11010111 /
b11010111 0
1(
#2220000
0(
#2225000
b10100 N
b100001110 <
b100011000 ;
b11011000 /
b11011000 0
b1100000 +
b1100000 K
b10010010 .
1(
#2230000
0(
#2235000
b100001110 "
b100001110 S
b10101 N
b10101101110 <
b10101111000 ;
b100001110 $
b100001110 A
b100001110 R
b10010011 .
b11011001 /
b11011001 0
b11010010 +
b11010010 K
1(
#2240000
0(
#2245000
b10101101110 "
b10101101110 S
b10101101110 $
b10101101110 A
b10101101110 R
b10110 N
b11111111111011011101 <
b11111111111011100111 ;
b11011010 /
b11011010 0
b1010 +
b1010 K
b10010100 .
1(
#2250000
0(
#2255000
b0 "
b0 S
b10111 N
b1101010111 <
b1101100001 ;
b11111111111011011101 $
b11111111111011011101 A
b11111111111011011101 R
b10010101 .
b11011011 /
b11011011 0
b0 +
b0 K
1(
#2260000
0(
#2265000
b1101010111 "
b1101010111 S
b1101010111 $
b1101010111 A
b1101010111 R
b11000 N
b11111111111101001100 <
b11111111111101010110 ;
b11011100 /
b11011100 0
b10010110 .
1(
#2270000
0(
#2275000
b0 "
b0 S
b11001 N
b11111111111111110110 <
b0 ;
b11111111111101001100 $
b11111111111101001100 A
b11111111111101001100 R
b10010111 .
b11011101 /
b11011101 0
1(
#2280000
0(
#2285000
b11111111111111110110 $
b11111111111111110110 A
b11111111111111110110 R
b11010 N
b11011110 /
b11011110 0
b10011000 .
1(
#2290000
0(
#2295000
b11011 N
b10011001 .
b11011111 /
b11011111 0
1(
#2300000
0(
#2305000
b1000 O
b0 N
b11100 Q
b11100000 /
b11100000 0
b10011010 .
1(
#2310000
0(
#2315000
b1 N
0!
b10011011 .
b11100001 /
b11100001 0
1(
#2320000
0(
#2325000
0#
b10 N
b11100010 /
b11100010 0
b10011100 .
1(
#2330000
0(
#2335000
b11 N
1!
b11100011 /
b11100011 0
1(
#2340000
0(
#2345000
1#
b100 N
b11100100 /
b11100100 0
1(
#2350000
0(
#2355000
b101 N
b10011101 .
b11100101 /
b11100101 0
1(
#2360000
0(
#2365000
b110 N
b11100110 /
b11100110 0
b10011110 .
1(
#2370000
0(
#2375000
b111 N
b10011111 .
b11100111 /
b11100111 0
1(
#2380000
0(
#2385000
b1000 N
b11101000 /
b11101000 0
b10100000 .
1(
#2390000
0(
#2395000
b1001 N
b10100001 .
b11101001 /
b11101001 0
1(
#2400000
0(
#2405000
b1010 N
b11111111110110100010 <
b11111111110110101100 ;
b11101010 /
b11101010 0
b1000101 +
b1000101 K
b10100010 .
1(
#2410000
0(
#2415000
b1011 N
b11111111111101010000 <
b11111111111101011010 ;
b11111111110110100010 $
b11111111110110100010 A
b11111111110110100010 R
b10100011 .
b11101011 /
b11101011 0
b11111100 +
b11111100 K
1(
#2420000
0(
#2425000
b11111111111101010000 $
b11111111111101010000 A
b11111111111101010000 R
b1100 N
b11001000000 <
b11001001010 ;
b11101100 /
b11101100 0
b10000110 +
b10000110 K
b10100100 .
1(
#2430000
0(
#2435000
b11001000000 "
b11001000000 S
b1101 N
b11110011110 <
b11110101000 ;
b11001000000 $
b11001000000 A
b11001000000 R
b10100101 .
b11101101 /
b11101101 0
b0 +
b0 K
1(
#2440000
0(
#2445000
b11110011110 "
b11110011110 S
b11110011110 $
b11110011110 A
b11110011110 R
b1110 N
b11100010110 <
b11100100000 ;
b11101110 /
b11101110 0
b10100110 .
1(
#2450000
0(
#2455000
b11100010110 "
b11100010110 S
b1111 N
b11111111111111110110 <
b0 ;
b11100010110 $
b11100010110 A
b11100010110 R
b10100111 .
b11101111 /
b11101111 0
1(
#2460000
0(
#2465000
b0 "
b0 S
b11111111111111110110 $
b11111111111111110110 A
b11111111111111110110 R
b10000 N
b11110000 /
b11110000 0
b10101000 .
1(
#2470000
0(
#2475000
b10001 N
b10101001 .
b11110001 /
b11110001 0
1(
#2480000
0(
#2485000
b10010 N
b11110010 /
b11110010 0
b10101010 .
1(
#2490000
0(
#2495000
b10011 N
b10101011 .
b11110011 /
b11110011 0
1(
#2500000
0(
#2505000
b10100 N
b11111111100100100110 <
b11111111100100110000 ;
b11110100 /
b11110100 0
b1110001 +
b1110001 K
b10101100 .
1(
#2510000
0(
#2515000
b10101 N
b11111111100101100011 <
b11111111100101101101 ;
b11111111100100100110 $
b11111111100100100110 A
b11111111100100100110 R
b10101101 .
b11110101 /
b11110101 0
b11111100 +
b11111100 K
1(
#2520000
0(
#2525000
b11111111100101100011 $
b11111111100101100011 A
b11111111100101100011 R
b10110 N
b11111111000010101011 <
b11111111000010110101 ;
b11110110 /
b11110110 0
b10101 +
b10101 K
b10101110 .
1(
#2530000
0(
#2535000
b10111 N
b11111111110000100011 <
b11111111110000101101 ;
b11111111000010101011 $
b11111111000010101011 A
b11111111000010101011 R
b10101111 .
b11110111 /
b11110111 0
b0 +
b0 K
1(
#2540000
0(
#2545000
b11111111110000100011 $
b11111111110000100011 A
b11111111110000100011 R
b11000 N
b11111111111010011011 <
b11111111111010100101 ;
b11111000 /
b11111000 0
b10110000 .
1(
#2550000
0(
#2555000
b11001 N
b11111111111111110110 <
b0 ;
b11111111111010011011 $
b11111111111010011011 A
b11111111111010011011 R
b10110001 .
b11111001 /
b11111001 0
1(
#2560000
0(
#2565000
b11111111111111110110 $
b11111111111111110110 A
b11111111111111110110 R
b11010 N
b11111010 /
b11111010 0
b10110010 .
1(
#2570000
0(
#2575000
b11011 N
b10110011 .
b11111011 /
b11111011 0
1(
#2580000
0(
#2585000
b1001 O
b0 N
b11100 Q
b11111100 /
b11111100 0
b10110100 .
1(
#2590000
0(
